{
    "extensionDescription":
    {
        "message": "Cierre el mensaje emergente de algún sitio web con un solo clic.",
        "description": "Descripción de la extensión."
    },
    "defaultPageActionTitle":
    {
        "message": "Cerrar el mensaje emergente de esta página",
        "description": "Descripción del browser action."
    },
    "suggestedKeyTitle":
    {
        "message": "Cerrar el mensaje emergente de esta página",
        "description": "Descripción de la suggested key."
    },
    "contextMenuRemoveOverlayTitle":
    {
        "message": "Cerrar el mensaje emergente de esta página",
        "description": "Description of the context menu remove overlay."
    },
    "noOverlayAlertMessage":
    {
        "message": "No se encontró ningún mensaje emergente en esta página.",
        "description": "Descripción del alert message."
    },
    "optionsPageTitle":
    {
        "message": "Configuración",
        "description": "Titulo de la página opciones."
    },
    "optionsShowPageActionButton":
    {
        "message": "Mostrar botón en la barra de direcciones.",
        "description": "Título para la opción mostrar botón en la barra de direcciones."
    },
    "optionsShowCloseOverlayContextMenu":
    {
        "message": "Mostrar opción en el menú contextual.",
        "description": "Título para la opción mostrar opción en el menú contextual."
    },
    "optionsSaveOptionsButton":
    {
        "message": "Guardar",
        "description": "Mensaje para el botón guardar opciones.."
    }
}