<?xml version="1.0" encoding="UTF-8" standalone="no"?>
<!-- Created with Inkscape (http://www.inkscape.org/) -->

<svg
   xmlns:dc="http://purl.org/dc/elements/1.1/"
   xmlns:cc="http://creativecommons.org/ns#"
   xmlns:rdf="http://www.w3.org/1999/02/22-rdf-syntax-ns#"
   xmlns:svg="http://www.w3.org/2000/svg"
   xmlns="http://www.w3.org/2000/svg"
   xmlns:sodipodi="http://sodipodi.sourceforge.net/DTD/sodipodi-0.dtd"
   xmlns:inkscape="http://www.inkscape.org/namespaces/inkscape"
   width="512"
   height="512"
   viewBox="0 0 135.46666 135.46667"
   version="1.1"
   id="svg4544"
   inkscape:version="0.92.3 (2405546, 2018-03-11)"
   sodipodi:docname="dark_icon_page_action.svg">
  <defs
     id="defs4538" />
  <sodipodi:namedview
     id="base"
     pagecolor="#ffffff"
     bordercolor="#666666"
     borderopacity="1.0"
     inkscape:pageopacity="0.0"
     inkscape:pageshadow="2"
     inkscape:zoom="1.0742188"
     inkscape:cx="255.99999"
     inkscape:cy="255.99999"
     inkscape:document-units="px"
     inkscape:current-layer="layer1"
     showgrid="false"
     units="px"
     inkscape:window-width="1366"
     inkscape:window-height="740"
     inkscape:window-x="0"
     inkscape:window-y="28"
     inkscape:window-maximized="1" />
  <metadata
     id="metadata4541">
    <rdf:RDF>
      <cc:Work
         rdf:about="">
        <dc:format>image/svg+xml</dc:format>
        <dc:type
           rdf:resource="http://purl.org/dc/dcmitype/StillImage" />
        <dc:title />
      </cc:Work>
    </rdf:RDF>
  </metadata>
  <g
     inkscape:label="Capa 1"
     inkscape:groupmode="layer"
     id="layer1"
     transform="translate(0,-161.53331)">
    <path
       style="fill:#f9f9fa;fill-opacity:0.60000002;fill-rule:nonzero;stroke:#fefefe;stroke-width:0.09587026;stroke-miterlimit:4;stroke-dasharray:none;stroke-dashoffset:0;stroke-opacity:1;opacity:1"
       d="M 67.733008,207.5599 A 37.470147,37.470147 0 0 0 30.263205,245.0297 37.470147,37.470147 0 0 0 67.733008,282.50014 37.470147,37.470147 0 0 0 105.20346,245.0297 37.470147,37.470147 0 0 0 67.733008,207.5599 Z m -12.298726,15.48071 12.298726,12.29946 12.29937,-12.29946 9.690317,9.69041 -12.298684,12.29868 12.298684,12.29936 -9.690317,9.69032 -12.29937,-12.29868 -12.298726,12.29868 -9.690314,-9.69032 12.299419,-12.29936 -12.299419,-12.29868 z"
       id="circle4302"
       inkscape:connector-curvature="0" />
    <path
       inkscape:connector-curvature="0"
       style="fill:#f9f9fa;fill-opacity:0.60000002;fill-rule:nonzero;stroke:none;stroke-width:2.71782374;stroke-miterlimit:4;stroke-dasharray:none;stroke-dashoffset:0;stroke-opacity:1;opacity:1"
       d="m 4.8506648,172.24308 c -2.6872101,0 -4.8506670720318,2.80093 -4.8506670720318,6.28 v 108.74339 c 0,3.47906 2.1634569720318,6.27994 4.8506670720318,6.27994 H 130.61599 c 2.68721,0 4.85068,-2.80088 4.85068,-6.27994 V 178.52308 c 0,-3.47907 -2.16347,-6.28 -4.85068,-6.28 H 111.247 v 12.87697 c 0,3.43801 -2.13796,6.20466 -4.79353,6.20466 h -1.28664 c -2.65558,0 -4.79353,-2.76665 -4.79353,-6.20466 V 172.24308 H 35.093359 v 12.87697 c 0,3.43801 -2.137954,6.20466 -4.793521,6.20466 h -1.286642 c -2.655575,0 -4.793529,-2.76665 -4.793529,-6.20466 v -12.87697 z m 5.3761402,29.4963 H 125.24087 c 2.95593,0 5.33534,3.08053 5.33534,6.90746 v 71.66067 c 0,3.82692 -2.37941,6.90743 -5.33534,6.90743 H 10.226805 c -2.9559325,0 -5.3363434,-3.08051 -5.3363434,-6.90743 v -71.66067 c 0,-3.82693 2.3804109,-6.90746 5.3363434,-6.90746 z"
       id="path4596" />
    <rect
       style="fill:#f9f9fa;fill-opacity:0.60000002;fill-rule:nonzero;stroke:none;stroke-width:1.3558253;stroke-miterlimit:4;stroke-dasharray:none;stroke-dashoffset:0;stroke-opacity:1;opacity:1"
       id="rect4598"
       width="6.7959127"
       height="23.273006"
       x="26.296999"
       y="164.98688"
       ry="3.8788335" />
    <rect
       ry="3.8788335"
       y="164.98688"
       x="102.55186"
       height="23.273006"
       width="6.7959127"
       id="rect4600"
       style="fill:#f9f9fa;fill-opacity:0.60000002;fill-rule:nonzero;stroke:none;stroke-width:1.3558253;stroke-miterlimit:4;stroke-dasharray:none;stroke-dashoffset:0;stroke-opacity:1;opacity:1" />
  </g>
</svg>
